{
  "project_info": {
    "project_number": "224880152982",
    "firebase_url": "https://mobin-b25c0.firebaseio.com",
    "project_id": "mobin-b25c0",
    "storage_bucket": "mobin-b25c0.appspot.com"
  },
  "client": [
    {
      "client_info": {
        "mobilesdk_app_id": "1:224880152982:android:6f20dffa69c40ca4",
        "android_client_info": {
          "package_name": "com.mmobin.treehousestudio.yada"
        }
      },
      "oauth_client": [
        {
          "client_id": "224880152982-ugrju1cltbq2mvnajcvukfsl1i4mtvlr.apps.googleusercontent.com",
          "client_type": 1,
          "android_info": {
            "package_name": "com.mmobin.treehousestudio.yada",
            "certificate_hash": "291b24e85611dd02c233b626b6382d73944374b7"
          }
        },
        {
          "client_id": "224880152982-k42u2vlolof9o9sb3qdh7cammgdmmtf4.apps.googleusercontent.com",
          "client_type": 3
        }
      ],
      "api_key": [
        {
          "current_key": "AIzaSyASW15UEGokR8CPt6vgEltDbC84nwaC1Vw"
        }
      ],
      "services": {
        "analytics_service": {
          "status": 1
        },
        "appinvite_service": {
          "status": 2,
          "other_platform_oauth_client": [
            {
              "client_id": "224880152982-k42u2vlolof9o9sb3qdh7cammgdmmtf4.apps.googleusercontent.com",
              "client_type": 3
            },
            {
              "client_id": "224880152982-1u0j1ul0segnb38jrrm9v60oo2j0tcct.apps.googleusercontent.com",
              "client_type": 2,
              "ios_info": {
                "bundle_id": "com.Narrator.treehouse"
              }
            }
          ]
        },
        "ads_service": {
          "status": 2
        }
      }
    },
    {
      "client_info": {
        "mobilesdk_app_id": "1:224880152982:android:851af91c5ff574ab",
        "android_client_info": {
          "package_name": "com.mobin.myshoppinglist"
        }
      },
      "oauth_client": [
        {
          "client_id": "224880152982-11u9bm05sc6g4kri600d3mdcdvjag0vh.apps.googleusercontent.com",
          "client_type": 1,
          "android_info": {
            "package_name": "com.mobin.myshoppinglist",
            "certificate_hash": "ed7ce134cfcc0a3429f8068cec8c1da3bd84f0f0"
          }
        },
        {
          "client_id": "224880152982-k42u2vlolof9o9sb3qdh7cammgdmmtf4.apps.googleusercontent.com",
          "client_type": 3
        }
      ],
      "api_key": [
        {
          "current_key": "AIzaSyASW15UEGokR8CPt6vgEltDbC84nwaC1Vw"
        }
      ],
      "services": {
        "analytics_service": {
          "status": 1
        },
        "appinvite_service": {
          "status": 2,
          "other_platform_oauth_client": [
            {
              "client_id": "224880152982-k42u2vlolof9o9sb3qdh7cammgdmmtf4.apps.googleusercontent.com",
              "client_type": 3
            },
            {
              "client_id": "224880152982-1u0j1ul0segnb38jrrm9v60oo2j0tcct.apps.googleusercontent.com",
              "client_type": 2,
              "ios_info": {
                "bundle_id": "com.Narrator.treehouse"
              }
            }
          ]
        },
        "ads_service": {
          "status": 2
        }
      }
    },
    {
      "client_info": {
        "mobilesdk_app_id": "1:224880152982:android:dda90c341a6dc586",
        "android_client_info": {
          "package_name": "com.mohammedmobinmunir.e_martspk"
        }
      },
      "oauth_client": [
        {
          "client_id": "224880152982-k42u2vlolof9o9sb3qdh7cammgdmmtf4.apps.googleusercontent.com",
          "client_type": 3
        }
      ],
      "api_key": [
        {
          "current_key": "AIzaSyASW15UEGokR8CPt6vgEltDbC84nwaC1Vw"
        }
      ],
      "services": {
        "analytics_service": {
          "status": 1
        },
        "appinvite_service": {
          "status": 1,
          "other_platform_oauth_client": []
        },
        "ads_service": {
          "status": 2
        }
      }
    },
    {
      "client_info": {
        "mobilesdk_app_id": "1:224880152982:android:47f0a2a4794ae7e3",
        "android_client_info": {
          "package_name": "com.mohammedmobinmunir.utilities"
        }
      },
      "oauth_client": [
        {
          "client_id": "224880152982-k42u2vlolof9o9sb3qdh7cammgdmmtf4.apps.googleusercontent.com",
          "client_type": 3
        }
      ],
      "api_key": [
        {
          "current_key": "AIzaSyASW15UEGokR8CPt6vgEltDbC84nwaC1Vw"
        }
      ],
      "services": {
        "analytics_service": {
          "status": 1
        },
        "appinvite_service": {
          "status": 1,
          "other_platform_oauth_client": []
        },
        "ads_service": {
          "status": 2
        }
      }
    },
    {
      "client_info": {
        "mobilesdk_app_id": "1:224880152982:android:4ebc6c43237310eb",
        "android_client_info": {
          "package_name": "com.webdealer.dashrider"
        }
      },
      "oauth_client": [
        {
          "client_id": "224880152982-k42u2vlolof9o9sb3qdh7cammgdmmtf4.apps.googleusercontent.com",
          "client_type": 3
        }
      ],
      "api_key": [
        {
          "current_key": "AIzaSyASW15UEGokR8CPt6vgEltDbC84nwaC1Vw"
        }
      ],
      "services": {
        "analytics_service": {
          "status": 1
        },
        "appinvite_service": {
          "status": 1,
          "other_platform_oauth_client": []
        },
        "ads_service": {
          "status": 2
        }
      }
    },
    {
      "client_info": {
        "mobilesdk_app_id": "1:224880152982:android:ca68ccf335c7398e",
        "android_client_info": {
          "package_name": "mobin.beautyclickcustomer"
        }
      },
      "oauth_client": [
        {
          "client_id": "224880152982-k42u2vlolof9o9sb3qdh7cammgdmmtf4.apps.googleusercontent.com",
          "client_type": 3
        }
      ],
      "api_key": [
        {
          "current_key": "AIzaSyASW15UEGokR8CPt6vgEltDbC84nwaC1Vw"
        }
      ],
      "services": {
        "analytics_service": {
          "status": 1
        },
        "appinvite_service": {
          "status": 1,
          "other_platform_oauth_client": []
        },
        "ads_service": {
          "status": 2
        }
      }
    },
    {
      "client_info": {
        "mobilesdk_app_id": "1:224880152982:android:38f0a667c4bdcb10",
        "android_client_info": {
          "package_name": "mobin.beautyclickprovider"
        }
      },
      "oauth_client": [
        {
          "client_id": "224880152982-k42u2vlolof9o9sb3qdh7cammgdmmtf4.apps.googleusercontent.com",
          "client_type": 3
        }
      ],
      "api_key": [
        {
          "current_key": "AIzaSyASW15UEGokR8CPt6vgEltDbC84nwaC1Vw"
        }
      ],
      "services": {
        "analytics_service": {
          "status": 1
        },
        "appinvite_service": {
          "status": 1,
          "other_platform_oauth_client": []
        },
        "ads_service": {
          "status": 2
        }
      }
    },
    {
      "client_info": {
        "mobilesdk_app_id": "1:224880152982:android:dc4cc3acaf107103",
        "android_client_info": {
          "package_name": "mohammedmuscular.universalathletix"
        }
      },
      "oauth_client": [
        {
          "client_id": "224880152982-k42u2vlolof9o9sb3qdh7cammgdmmtf4.apps.googleusercontent.com",
          "client_type": 3
        }
      ],
      "api_key": [
        {
          "current_key": "AIzaSyASW15UEGokR8CPt6vgEltDbC84nwaC1Vw"
        }
      ],
      "services": {
        "analytics_service": {
          "status": 1
        },
        "appinvite_service": {
          "status": 1,
          "other_platform_oauth_client": []
        },
        "ads_service": {
          "status": 2
        }
      }
    }
  ],
  "configuration_version": "1"
}